# gmm-acc-stats-ali exp/tri3b/10.mdl "ark,s,cs:apply-cmvn  --utt2spk=ark:data/train/split2/1/utt2spk scp:data/train/split2/1/cmvn.scp scp:data/train/split2/1/feats.scp ark:- | splice-feats  ark:- ark:- | transform-feats exp/tri2b_ali/final.mat ark:- ark:- | transform-feats --utt2spk=ark:data/train/split2/1/utt2spk ark:exp/tri3b/trans.1 ark:- ark:- |" "ark,s,cs:gunzip -c exp/tri3b/ali.1.gz|" exp/tri3b/10.1.acc 
# Started at Wed Sep 16 17:37:45 CEST 2015
#
gmm-acc-stats-ali exp/tri3b/10.mdl 'ark,s,cs:apply-cmvn  --utt2spk=ark:data/train/split2/1/utt2spk scp:data/train/split2/1/cmvn.scp scp:data/train/split2/1/feats.scp ark:- | splice-feats  ark:- ark:- | transform-feats exp/tri2b_ali/final.mat ark:- ark:- | transform-feats --utt2spk=ark:data/train/split2/1/utt2spk ark:exp/tri3b/trans.1 ark:- ark:- |' 'ark,s,cs:gunzip -c exp/tri3b/ali.1.gz|' exp/tri3b/10.1.acc 
transform-feats --utt2spk=ark:data/train/split2/1/utt2spk ark:exp/tri3b/trans.1 ark:- ark:- 
apply-cmvn --utt2spk=ark:data/train/split2/1/utt2spk scp:data/train/split2/1/cmvn.scp scp:data/train/split2/1/feats.scp ark:- 
transform-feats exp/tri2b_ali/final.mat ark:- ark:- 
splice-feats ark:- ark:- 
WARNING (gmm-acc-stats-ali:main():gmm-acc-stats-ali.cc:79) No alignment for utterance dsgputr1-20130122-dsg-dsgputr1_140
LOG (gmm-acc-stats-ali:main():gmm-acc-stats-ali.cc:105) Processed 50 utterances; for utterance dsgputr1-20130122-dsg-dsgputr1_144 avg. like is -38.9741 over 104 frames.
LOG (gmm-acc-stats-ali:main():gmm-acc-stats-ali.cc:105) Processed 100 utterances; for utterance dsgputr1-20130122-dsg-dsgputr1_19 avg. like is -42.2536 over 56 frames.
LOG (gmm-acc-stats-ali:main():gmm-acc-stats-ali.cc:105) Processed 150 utterances; for utterance dsgputr1-20130122-dsg-dsgputr1_234 avg. like is -48.4442 over 229 frames.
WARNING (gmm-acc-stats-ali:main():gmm-acc-stats-ali.cc:79) No alignment for utterance dsgputr1-20130122-dsg-dsgputr1_265
LOG (gmm-acc-stats-ali:main():gmm-acc-stats-ali.cc:105) Processed 200 utterances; for utterance dsgputr1-20130122-dsg-dsgputr1_280 avg. like is -39.0336 over 56 frames.
LOG (gmm-acc-stats-ali:main():gmm-acc-stats-ali.cc:105) Processed 250 utterances; for utterance dsgputr1-20130122-dsg-dsgputr1_325 avg. like is -42.3482 over 92 frames.
WARNING (gmm-acc-stats-ali:main():gmm-acc-stats-ali.cc:79) No alignment for utterance dsgputr1-20130122-dsg-dsgputr1_339
LOG (gmm-acc-stats-ali:main():gmm-acc-stats-ali.cc:105) Processed 300 utterances; for utterance dsgputr1-20130122-dsg-dsgputr1_371 avg. like is -37.2285 over 65 frames.
LOG (gmm-acc-stats-ali:main():gmm-acc-stats-ali.cc:105) Processed 350 utterances; for utterance dsgputr1-20130122-dsg-dsgputr1_416 avg. like is -38.8644 over 117 frames.
LOG (gmm-acc-stats-ali:main():gmm-acc-stats-ali.cc:105) Processed 400 utterances; for utterance dsgputr1-20130122-dsg-dsgputr1_54 avg. like is -36.3244 over 80 frames.
WARNING (gmm-acc-stats-ali:main():gmm-acc-stats-ali.cc:79) No alignment for utterance dsgputr1-20130122-dsg-dsgputr1_92
LOG (gmm-acc-stats-ali:main():gmm-acc-stats-ali.cc:105) Processed 450 utterances; for utterance dsgputr10-20130124-dsg-dsgputr10_10 avg. like is -37.2763 over 261 frames.
LOG (gmm-acc-stats-ali:main():gmm-acc-stats-ali.cc:105) Processed 500 utterances; for utterance dsgputr10-20130124-dsg-dsgputr10_145 avg. like is -40.039 over 285 frames.
LOG (gmm-acc-stats-ali:main():gmm-acc-stats-ali.cc:105) Processed 550 utterances; for utterance dsgputr10-20130124-dsg-dsgputr10_190 avg. like is -49.4407 over 336 frames.
LOG (gmm-acc-stats-ali:main():gmm-acc-stats-ali.cc:105) Processed 600 utterances; for utterance dsgputr10-20130124-dsg-dsgputr10_235 avg. like is -48.1901 over 155 frames.
LOG (gmm-acc-stats-ali:main():gmm-acc-stats-ali.cc:105) Processed 650 utterances; for utterance dsgputr10-20130124-dsg-dsgputr10_280 avg. like is -43.8443 over 97 frames.
LOG (gmm-acc-stats-ali:main():gmm-acc-stats-ali.cc:105) Processed 700 utterances; for utterance dsgputr10-20130124-dsg-dsgputr10_325 avg. like is -45.6643 over 122 frames.
LOG (gmm-acc-stats-ali:main():gmm-acc-stats-ali.cc:105) Processed 750 utterances; for utterance dsgputr10-20130124-dsg-dsgputr10_370 avg. like is -47.9884 over 195 frames.
LOG (gmm-acc-stats-ali:main():gmm-acc-stats-ali.cc:105) Processed 800 utterances; for utterance dsgputr10-20130124-dsg-dsgputr10_415 avg. like is -49.1149 over 143 frames.
LOG (gmm-acc-stats-ali:main():gmm-acc-stats-ali.cc:105) Processed 850 utterances; for utterance dsgputr10-20130124-dsg-dsgputr10_81 avg. like is -42.5682 over 91 frames.
WARNING (gmm-acc-stats-ali:main():gmm-acc-stats-ali.cc:79) No alignment for utterance dsgputr11-20130124-dsg-dsgputr11_119
LOG (gmm-acc-stats-ali:main():gmm-acc-stats-ali.cc:105) Processed 900 utterances; for utterance dsgputr11-20130124-dsg-dsgputr11_127 avg. like is -44.4587 over 135 frames.
LOG (gmm-acc-stats-ali:main():gmm-acc-stats-ali.cc:105) Processed 950 utterances; for utterance dsgputr11-20130124-dsg-dsgputr11_172 avg. like is -52.5009 over 352 frames.
LOG (gmm-acc-stats-ali:main():gmm-acc-stats-ali.cc:105) Processed 1000 utterances; for utterance dsgputr11-20130124-dsg-dsgputr11_217 avg. like is -46.0183 over 115 frames.
LOG (gmm-acc-stats-ali:main():gmm-acc-stats-ali.cc:105) Processed 1050 utterances; for utterance dsgputr11-20130124-dsg-dsgputr11_262 avg. like is -38.9362 over 60 frames.
LOG (gmm-acc-stats-ali:main():gmm-acc-stats-ali.cc:105) Processed 1100 utterances; for utterance dsgputr11-20130124-dsg-dsgputr11_307 avg. like is -43.1419 over 65 frames.
LOG (gmm-acc-stats-ali:main():gmm-acc-stats-ali.cc:105) Processed 1150 utterances; for utterance dsgputr11-20130124-dsg-dsgputr11_352 avg. like is -36.1364 over 60 frames.
LOG (gmm-acc-stats-ali:main():gmm-acc-stats-ali.cc:105) Processed 1200 utterances; for utterance dsgputr11-20130124-dsg-dsgputr11_398 avg. like is -39.6038 over 85 frames.
LOG (gmm-acc-stats-ali:main():gmm-acc-stats-ali.cc:105) Processed 1250 utterances; for utterance dsgputr11-20130124-dsg-dsgputr11_45 avg. like is -48.3638 over 178 frames.
LOG (gmm-acc-stats-ali:main():gmm-acc-stats-ali.cc:105) Processed 1300 utterances; for utterance dsgputr11-20130124-dsg-dsgputr11_90 avg. like is -47.4036 over 129 frames.
LOG (gmm-acc-stats-ali:main():gmm-acc-stats-ali.cc:105) Processed 1350 utterances; for utterance dsgputr12-20130125-dsg-dsgputr12_135 avg. like is -44.1617 over 63 frames.
LOG (gmm-acc-stats-ali:main():gmm-acc-stats-ali.cc:105) Processed 1400 utterances; for utterance dsgputr12-20130125-dsg-dsgputr12_180 avg. like is -40.7468 over 72 frames.
LOG (gmm-acc-stats-ali:main():gmm-acc-stats-ali.cc:105) Processed 1450 utterances; for utterance dsgputr12-20130125-dsg-dsgputr12_225 avg. like is -44.4516 over 85 frames.
LOG (gmm-acc-stats-ali:main():gmm-acc-stats-ali.cc:105) Processed 1500 utterances; for utterance dsgputr12-20130125-dsg-dsgputr12_270 avg. like is -45.7975 over 92 frames.
LOG (gmm-acc-stats-ali:main():gmm-acc-stats-ali.cc:105) Processed 1550 utterances; for utterance dsgputr12-20130125-dsg-dsgputr12_315 avg. like is -44.2318 over 126 frames.
LOG (gmm-acc-stats-ali:main():gmm-acc-stats-ali.cc:105) Processed 1600 utterances; for utterance dsgputr12-20130125-dsg-dsgputr12_360 avg. like is -39.4731 over 62 frames.
LOG (gmm-acc-stats-ali:main():gmm-acc-stats-ali.cc:105) Processed 1650 utterances; for utterance dsgputr12-20130125-dsg-dsgputr12_41 avg. like is -47.8804 over 116 frames.
LOG (gmm-acc-stats-ali:main():gmm-acc-stats-ali.cc:105) Processed 1700 utterances; for utterance dsgputr12-20130125-dsg-dsgputr12_87 avg. like is -41.0867 over 105 frames.
LOG (gmm-acc-stats-ali:main():gmm-acc-stats-ali.cc:105) Processed 1750 utterances; for utterance dsgputr13-20130125-dsg-dsgputr13_131 avg. like is -30.9338 over 84 frames.
LOG (gmm-acc-stats-ali:main():gmm-acc-stats-ali.cc:105) Processed 1800 utterances; for utterance dsgputr13-20130125-dsg-dsgputr13_177 avg. like is -38.4784 over 94 frames.
LOG (gmm-acc-stats-ali:main():gmm-acc-stats-ali.cc:105) Processed 1850 utterances; for utterance dsgputr13-20130125-dsg-dsgputr13_221 avg. like is -49.8636 over 226 frames.
LOG (gmm-acc-stats-ali:main():gmm-acc-stats-ali.cc:105) Processed 1900 utterances; for utterance dsgputr13-20130125-dsg-dsgputr13_267 avg. like is -33.331 over 128 frames.
LOG (gmm-acc-stats-ali:main():gmm-acc-stats-ali.cc:105) Processed 1950 utterances; for utterance dsgputr13-20130125-dsg-dsgputr13_311 avg. like is -30.3711 over 74 frames.
LOG (gmm-acc-stats-ali:main():gmm-acc-stats-ali.cc:105) Processed 2000 utterances; for utterance dsgputr13-20130125-dsg-dsgputr13_357 avg. like is -44.7503 over 110 frames.
LOG (gmm-acc-stats-ali:main():gmm-acc-stats-ali.cc:105) Processed 2050 utterances; for utterance dsgputr13-20130125-dsg-dsgputr13_401 avg. like is -35.0573 over 46 frames.
LOG (gmm-acc-stats-ali:main():gmm-acc-stats-ali.cc:105) Processed 2100 utterances; for utterance dsgputr13-20130125-dsg-dsgputr13_447 avg. like is -40.1421 over 78 frames.
LOG (gmm-acc-stats-ali:main():gmm-acc-stats-ali.cc:105) Processed 2150 utterances; for utterance dsgputr13-20130125-dsg-dsgputr13_81 avg. like is -35.0947 over 84 frames.
LOG (gmm-acc-stats-ali:main():gmm-acc-stats-ali.cc:105) Processed 2200 utterances; for utterance dsgputr14-20130125-dsg-dsgputr14_126 avg. like is -49.9164 over 78 frames.
LOG (gmm-acc-stats-ali:main():gmm-acc-stats-ali.cc:105) Processed 2250 utterances; for utterance dsgputr14-20130125-dsg-dsgputr14_171 avg. like is -39.8086 over 65 frames.
WARNING (gmm-acc-stats-ali:main():gmm-acc-stats-ali.cc:79) No alignment for utterance dsgputr14-20130125-dsg-dsgputr14_203
LOG (gmm-acc-stats-ali:main():gmm-acc-stats-ali.cc:105) Processed 2300 utterances; for utterance dsgputr14-20130125-dsg-dsgputr14_217 avg. like is -41.8135 over 557 frames.
LOG (gmm-acc-stats-ali:main():gmm-acc-stats-ali.cc:105) Processed 2350 utterances; for utterance dsgputr14-20130125-dsg-dsgputr14_262 avg. like is -51.8824 over 289 frames.
LOG (gmm-acc-stats-ali:main():gmm-acc-stats-ali.cc:105) Processed 2400 utterances; for utterance dsgputr14-20130125-dsg-dsgputr14_307 avg. like is -37.2297 over 143 frames.
LOG (gmm-acc-stats-ali:main():gmm-acc-stats-ali.cc:105) Processed 2450 utterances; for utterance dsgputr14-20130125-dsg-dsgputr14_44 avg. like is -43.643 over 140 frames.
WARNING (gmm-acc-stats-ali:main():gmm-acc-stats-ali.cc:79) No alignment for utterance dsgputr14-20130125-dsg-dsgputr14_6
LOG (gmm-acc-stats-ali:main():gmm-acc-stats-ali.cc:105) Processed 2500 utterances; for utterance dsgputr14-20130125-dsg-dsgputr14_90 avg. like is -47.2655 over 167 frames.
LOG (gmm-acc-stats-ali:main():gmm-acc-stats-ali.cc:105) Processed 2550 utterances; for utterance dsgputr15-20130125-dsg-dsgputr15_135 avg. like is -39.9247 over 50 frames.
LOG (gmm-acc-stats-ali:main():gmm-acc-stats-ali.cc:105) Processed 2600 utterances; for utterance dsgputr15-20130125-dsg-dsgputr15_180 avg. like is -42.21 over 154 frames.
LOG (gmm-acc-stats-ali:main():gmm-acc-stats-ali.cc:105) Processed 2650 utterances; for utterance dsgputr15-20130125-dsg-dsgputr15_225 avg. like is -44.4525 over 95 frames.
LOG (gmm-acc-stats-ali:main():gmm-acc-stats-ali.cc:105) Processed 2700 utterances; for utterance dsgputr15-20130125-dsg-dsgputr15_270 avg. like is -42.9005 over 101 frames.
LOG (gmm-acc-stats-ali:main():gmm-acc-stats-ali.cc:105) Processed 2750 utterances; for utterance dsgputr15-20130125-dsg-dsgputr15_315 avg. like is -45.2201 over 130 frames.
LOG (gmm-acc-stats-ali:main():gmm-acc-stats-ali.cc:105) Processed 2800 utterances; for utterance dsgputr15-20130125-dsg-dsgputr15_360 avg. like is -38.8197 over 119 frames.
LOG (gmm-acc-stats-ali:main():gmm-acc-stats-ali.cc:105) Processed 2850 utterances; for utterance dsgputr15-20130125-dsg-dsgputr15_405 avg. like is -43.2451 over 108 frames.
LOG (gmm-acc-stats-ali:main():gmm-acc-stats-ali.cc:105) Processed 2900 utterances; for utterance dsgputr15-20130125-dsg-dsgputr15_450 avg. like is -40.4845 over 77 frames.
WARNING (gmm-acc-stats-ali:main():gmm-acc-stats-ali.cc:79) No alignment for utterance dsgputr15-20130125-dsg-dsgputr15_488
LOG (gmm-acc-stats-ali:main():gmm-acc-stats-ali.cc:105) Processed 2950 utterances; for utterance dsgputr15-20130125-dsg-dsgputr15_497 avg. like is -36.8589 over 37 frames.
WARNING (gmm-acc-stats-ali:main():gmm-acc-stats-ali.cc:79) No alignment for utterance dsgputr15-20130125-dsg-dsgputr15_523
LOG (gmm-acc-stats-ali:main():gmm-acc-stats-ali.cc:105) Processed 3000 utterances; for utterance dsgputr15-20130125-dsg-dsgputr15_542 avg. like is -44.3736 over 90 frames.
LOG (gmm-acc-stats-ali:main():gmm-acc-stats-ali.cc:105) Processed 3050 utterances; for utterance dsgputr15-20130125-dsg-dsgputr15_67 avg. like is -42.9844 over 54 frames.
LOG (gmm-acc-stats-ali:main():gmm-acc-stats-ali.cc:105) Processed 3100 utterances; for utterance dsgputr16-20130125-dsg-dsgputr16_111 avg. like is -42.5798 over 127 frames.
LOG (gmm-acc-stats-ali:main():gmm-acc-stats-ali.cc:105) Processed 3150 utterances; for utterance dsgputr16-20130125-dsg-dsgputr16_157 avg. like is -44.3507 over 110 frames.
LOG (gmm-acc-stats-ali:main():gmm-acc-stats-ali.cc:105) Processed 3200 utterances; for utterance dsgputr16-20130125-dsg-dsgputr16_201 avg. like is -50.6976 over 142 frames.
LOG (gmm-acc-stats-ali:main():gmm-acc-stats-ali.cc:105) Processed 3250 utterances; for utterance dsgputr16-20130125-dsg-dsgputr16_247 avg. like is -43.7385 over 402 frames.
LOG (gmm-acc-stats-ali:main():gmm-acc-stats-ali.cc:105) Processed 3300 utterances; for utterance dsgputr16-20130125-dsg-dsgputr16_292 avg. like is -49.1503 over 168 frames.
LOG (gmm-acc-stats-ali:main():gmm-acc-stats-ali.cc:105) Processed 3350 utterances; for utterance dsgputr16-20130125-dsg-dsgputr16_337 avg. like is -51.8687 over 769 frames.
LOG (gmm-acc-stats-ali:main():gmm-acc-stats-ali.cc:105) Processed 3400 utterances; for utterance dsgputr16-20130125-dsg-dsgputr16_77 avg. like is -52.895 over 387 frames.
LOG (gmm-acc-stats-ali:main():gmm-acc-stats-ali.cc:105) Processed 3450 utterances; for utterance dsgputr2-20130122-dsg-dsgputr2_121 avg. like is -37.6602 over 66 frames.
LOG (gmm-acc-stats-ali:main():gmm-acc-stats-ali.cc:105) Processed 3500 utterances; for utterance dsgputr2-20130122-dsg-dsgputr2_167 avg. like is -45.7322 over 69 frames.
LOG (gmm-acc-stats-ali:main():gmm-acc-stats-ali.cc:105) Processed 3550 utterances; for utterance dsgputr2-20130122-dsg-dsgputr2_211 avg. like is -45.9484 over 86 frames.
LOG (gmm-acc-stats-ali:main():gmm-acc-stats-ali.cc:105) Processed 3600 utterances; for utterance dsgputr2-20130122-dsg-dsgputr2_257 avg. like is -36.9684 over 77 frames.
LOG (gmm-acc-stats-ali:main():gmm-acc-stats-ali.cc:105) Processed 3650 utterances; for utterance dsgputr2-20130122-dsg-dsgputr2_301 avg. like is -44.6083 over 273 frames.
LOG (gmm-acc-stats-ali:main():gmm-acc-stats-ali.cc:105) Processed 3700 utterances; for utterance dsgputr2-20130122-dsg-dsgputr2_347 avg. like is -39.1519 over 77 frames.
LOG (gmm-acc-stats-ali:main():gmm-acc-stats-ali.cc:105) Processed 3750 utterances; for utterance dsgputr2-20130122-dsg-dsgputr2_392 avg. like is -44.9048 over 63 frames.
LOG (gmm-acc-stats-ali:main():gmm-acc-stats-ali.cc:105) Processed 3800 utterances; for utterance dsgputr2-20130122-dsg-dsgputr2_437 avg. like is -44.5396 over 136 frames.
LOG (gmm-acc-stats-ali:main():gmm-acc-stats-ali.cc:105) Processed 3850 utterances; for utterance dsgputr2-20130122-dsg-dsgputr2_482 avg. like is -36.0579 over 63 frames.
LOG (gmm-acc-stats-ali:main():gmm-acc-stats-ali.cc:105) Processed 3900 utterances; for utterance dsgputr2-20130122-dsg-dsgputr2_84 avg. like is -40.7793 over 81 frames.
WARNING (gmm-acc-stats-ali:main():gmm-acc-stats-ali.cc:79) No alignment for utterance dsgputr3-20130122-dsg-dsgputr3_12
LOG (gmm-acc-stats-ali:main():gmm-acc-stats-ali.cc:105) Processed 3950 utterances; for utterance dsgputr3-20130122-dsg-dsgputr3_13 avg. like is -44.6812 over 89 frames.
LOG (gmm-acc-stats-ali:main():gmm-acc-stats-ali.cc:105) Processed 4000 utterances; for utterance dsgputr3-20130122-dsg-dsgputr3_175 avg. like is -42.0108 over 67 frames.
LOG (gmm-acc-stats-ali:main():gmm-acc-stats-ali.cc:105) Processed 4050 utterances; for utterance dsgputr3-20130122-dsg-dsgputr3_28 avg. like is -38.224 over 74 frames.
LOG (gmm-acc-stats-ali:main():gmm-acc-stats-ali.cc:105) Processed 4100 utterances; for utterance dsgputr3-20130122-dsg-dsgputr3_73 avg. like is -43.3983 over 65 frames.
LOG (gmm-acc-stats-ali:main():gmm-acc-stats-ali.cc:105) Processed 4150 utterances; for utterance dsgputr4-20130122-dsg-dsgputr4_118 avg. like is -43.7348 over 148 frames.
LOG (gmm-acc-stats-ali:main():gmm-acc-stats-ali.cc:105) Processed 4200 utterances; for utterance dsgputr4-20130122-dsg-dsgputr4_163 avg. like is -49.9734 over 282 frames.
WARNING (gmm-acc-stats-ali:main():gmm-acc-stats-ali.cc:79) No alignment for utterance dsgputr4-20130122-dsg-dsgputr4_172
LOG (gmm-acc-stats-ali:main():gmm-acc-stats-ali.cc:105) Processed 4250 utterances; for utterance dsgputr4-20130122-dsg-dsgputr4_209 avg. like is -50.3042 over 93 frames.
LOG (gmm-acc-stats-ali:main():gmm-acc-stats-ali.cc:105) Processed 4300 utterances; for utterance dsgputr4-20130122-dsg-dsgputr4_50 avg. like is -48.7225 over 167 frames.
LOG (gmm-acc-stats-ali:main():gmm-acc-stats-ali.cc:105) Processed 4350 utterances; for utterance dsgputr4-20130122-dsg-dsgputr4_96 avg. like is -30.3267 over 91 frames.
LOG (gmm-acc-stats-ali:main():gmm-acc-stats-ali.cc:105) Processed 4400 utterances; for utterance dsgputr6-20130123-dsg-dsgputr6_140 avg. like is -47.2908 over 143 frames.
LOG (gmm-acc-stats-ali:main():gmm-acc-stats-ali.cc:105) Processed 4450 utterances; for utterance dsgputr6-20130123-dsg-dsgputr6_186 avg. like is -50.4926 over 429 frames.
LOG (gmm-acc-stats-ali:main():gmm-acc-stats-ali.cc:105) Processed 4500 utterances; for utterance dsgputr6-20130123-dsg-dsgputr6_230 avg. like is -40.4943 over 41 frames.
LOG (gmm-acc-stats-ali:main():gmm-acc-stats-ali.cc:105) Processed 4550 utterances; for utterance dsgputr6-20130123-dsg-dsgputr6_276 avg. like is -38.7351 over 55 frames.
LOG (gmm-acc-stats-ali:main():gmm-acc-stats-ali.cc:105) Processed 4600 utterances; for utterance dsgputr6-20130123-dsg-dsgputr6_320 avg. like is -43.5305 over 58 frames.
LOG (gmm-acc-stats-ali:main():gmm-acc-stats-ali.cc:105) Processed 4650 utterances; for utterance dsgputr6-20130123-dsg-dsgputr6_43 avg. like is -37.8416 over 65 frames.
LOG (gmm-acc-stats-ali:main():gmm-acc-stats-ali.cc:105) Processed 4700 utterances; for utterance dsgputr6-20130123-dsg-dsgputr6_89 avg. like is -32.1457 over 62 frames.
LOG (gmm-acc-stats-ali:main():gmm-acc-stats-ali.cc:105) Processed 4750 utterances; for utterance dsgputr8-20130124-dsg-dsgputr8_133 avg. like is -43.1742 over 100 frames.
LOG (gmm-acc-stats-ali:main():gmm-acc-stats-ali.cc:105) Processed 4800 utterances; for utterance dsgputr8-20130124-dsg-dsgputr8_179 avg. like is -37.1061 over 70 frames.
LOG (gmm-acc-stats-ali:main():gmm-acc-stats-ali.cc:105) Processed 4850 utterances; for utterance dsgputr8-20130124-dsg-dsgputr8_223 avg. like is -35.5086 over 75 frames.
LOG (gmm-acc-stats-ali:main():gmm-acc-stats-ali.cc:105) Processed 4900 utterances; for utterance dsgputr8-20130124-dsg-dsgputr8_269 avg. like is -39.6871 over 70 frames.
LOG (gmm-acc-stats-ali:main():gmm-acc-stats-ali.cc:105) Processed 4950 utterances; for utterance dsgputr8-20130124-dsg-dsgputr8_57 avg. like is -38.5637 over 68 frames.
LOG (gmm-acc-stats-ali:main():gmm-acc-stats-ali.cc:105) Processed 5000 utterances; for utterance dsgputr9-20130124-dsg-dsgputr9_101 avg. like is -49.5493 over 189 frames.
LOG (gmm-acc-stats-ali:main():gmm-acc-stats-ali.cc:105) Processed 5050 utterances; for utterance dsgputr9-20130124-dsg-dsgputr9_147 avg. like is -52.0576 over 208 frames.
LOG (gmm-acc-stats-ali:main():gmm-acc-stats-ali.cc:105) Processed 5100 utterances; for utterance dsgputr9-20130124-dsg-dsgputr9_192 avg. like is -44.0883 over 80 frames.
WARNING (gmm-acc-stats-ali:main():gmm-acc-stats-ali.cc:79) No alignment for utterance dsgputr9-20130124-dsg-dsgputr9_234
LOG (gmm-acc-stats-ali:main():gmm-acc-stats-ali.cc:105) Processed 5150 utterances; for utterance dsgputr9-20130124-dsg-dsgputr9_238 avg. like is -46.3002 over 59 frames.
LOG (gmm-acc-stats-ali:main():gmm-acc-stats-ali.cc:105) Processed 5200 utterances; for utterance dsgputr9-20130124-dsg-dsgputr9_283 avg. like is -41.2053 over 51 frames.
LOG (gmm-acc-stats-ali:main():gmm-acc-stats-ali.cc:105) Processed 5250 utterances; for utterance dsgputr9-20130124-dsg-dsgputr9_328 avg. like is -40.2366 over 74 frames.
LOG (gmm-acc-stats-ali:main():gmm-acc-stats-ali.cc:105) Processed 5300 utterances; for utterance dsgputr9-20130124-dsg-dsgputr9_373 avg. like is -34.5133 over 57 frames.
LOG (gmm-acc-stats-ali:main():gmm-acc-stats-ali.cc:105) Processed 5350 utterances; for utterance dsgputr9-20130124-dsg-dsgputr9_418 avg. like is -59.0931 over 64 frames.
LOG (gmm-acc-stats-ali:main():gmm-acc-stats-ali.cc:105) Processed 5400 utterances; for utterance dsgputr9-20130124-dsg-dsgputr9_463 avg. like is -53.9533 over 171 frames.
LOG (gmm-acc-stats-ali:main():gmm-acc-stats-ali.cc:105) Processed 5450 utterances; for utterance dsgputr9-20130124-dsg-dsgputr9_508 avg. like is -49.3472 over 139 frames.
LOG (gmm-acc-stats-ali:main():gmm-acc-stats-ali.cc:105) Processed 5500 utterances; for utterance dsgputr9-20130124-dsg-dsgputr9_87 avg. like is -45.282 over 56 frames.
LOG (gmm-acc-stats-ali:main():gmm-acc-stats-ali.cc:105) Processed 5550 utterances; for utterance dsgtakecvr1_p1-20150120-dsg-dsgtakecvr1_p1_9 avg. like is -44.1067 over 1008 frames.
WARNING (gmm-acc-stats-ali:main():gmm-acc-stats-ali.cc:79) No alignment for utterance dsgtakecvr1_p2-20150120-dsg-dsgtakecvr1_p2_16
WARNING (gmm-acc-stats-ali:main():gmm-acc-stats-ali.cc:79) No alignment for utterance dsgtakecvr1_p2-20150120-dsg-dsgtakecvr1_p2_18
WARNING (gmm-acc-stats-ali:main():gmm-acc-stats-ali.cc:79) No alignment for utterance dsgtakecvr1_p2-20150120-dsg-dsgtakecvr1_p2_3
LOG (gmm-acc-stats-ali:main():gmm-acc-stats-ali.cc:105) Processed 5600 utterances; for utterance dsgtakecvr2_p1-20150120-dsg-dsgtakecvr2_p1_31 avg. like is -40.4522 over 582 frames.
WARNING (gmm-acc-stats-ali:main():gmm-acc-stats-ali.cc:79) No alignment for utterance dsgtakecvr3_p1-20150121-dsg-dsgtakecvr3_p1_11
WARNING (gmm-acc-stats-ali:main():gmm-acc-stats-ali.cc:79) No alignment for utterance dsgtakecvr3_p1-20150121-dsg-dsgtakecvr3_p1_13
WARNING (gmm-acc-stats-ali:main():gmm-acc-stats-ali.cc:79) No alignment for utterance dsgtakecvr3_p1-20150121-dsg-dsgtakecvr3_p1_17
WARNING (gmm-acc-stats-ali:main():gmm-acc-stats-ali.cc:79) No alignment for utterance dsgtakecvr3_p1-20150121-dsg-dsgtakecvr3_p1_19
LOG (gmm-acc-stats-ali:main():gmm-acc-stats-ali.cc:105) Processed 5650 utterances; for utterance dsgtakecvr3_p1-20150121-dsg-dsgtakecvr3_p1_27 avg. like is -39.0399 over 1737 frames.
WARNING (gmm-acc-stats-ali:main():gmm-acc-stats-ali.cc:79) No alignment for utterance dsgtakecvr3_p1-20150121-dsg-dsgtakecvr3_p1_46
WARNING (gmm-acc-stats-ali:main():gmm-acc-stats-ali.cc:79) No alignment for utterance dsgtakecvr3_p2-20150121-dsg-dsgtakecvr3_p2_1
LOG (gmm-acc-stats-ali:main():gmm-acc-stats-ali.cc:105) Processed 5700 utterances; for utterance dsgtakecvr3_p2-20150121-dsg-dsgtakecvr3_p2_19 avg. like is -44.6961 over 1474 frames.
WARNING (gmm-acc-stats-ali:main():gmm-acc-stats-ali.cc:79) No alignment for utterance dsgtakecvr3_p2-20150121-dsg-dsgtakecvr3_p2_21
WARNING (gmm-acc-stats-ali:main():gmm-acc-stats-ali.cc:79) No alignment for utterance dsgtakecvr3_p2-20150121-dsg-dsgtakecvr3_p2_28
WARNING (gmm-acc-stats-ali:main():gmm-acc-stats-ali.cc:79) No alignment for utterance dsgtakecvr3_p2-20150121-dsg-dsgtakecvr3_p2_6
LOG (gmm-acc-stats-ali:main():gmm-acc-stats-ali.cc:105) Processed 5750 utterances; for utterance dsgtakecvr4_p1-20150121-dsg-dsgtakecvr4_p1_33 avg. like is -40.8443 over 1667 frames.
WARNING (gmm-acc-stats-ali:main():gmm-acc-stats-ali.cc:79) No alignment for utterance dsgtakecvr4_p2-20150121-dsg-dsgtakecvr4_p2_10
WARNING (gmm-acc-stats-ali:main():gmm-acc-stats-ali.cc:79) No alignment for utterance dsgtakecvr4_p2-20150121-dsg-dsgtakecvr4_p2_11
WARNING (gmm-acc-stats-ali:main():gmm-acc-stats-ali.cc:79) No alignment for utterance dsgtakecvr4_p2-20150121-dsg-dsgtakecvr4_p2_40
WARNING (gmm-acc-stats-ali:main():gmm-acc-stats-ali.cc:79) No alignment for utterance dsgtakecvr4_p2-20150121-dsg-dsgtakecvr4_p2_41
LOG (gmm-acc-stats-ali:main():gmm-acc-stats-ali.cc:105) Processed 5800 utterances; for utterance dsgtakecvr4_p2-20150121-dsg-dsgtakecvr4_p2_43 avg. like is -43.5883 over 981 frames.
WARNING (gmm-acc-stats-ali:main():gmm-acc-stats-ali.cc:79) No alignment for utterance dsgtakecvr4_p2-20150121-dsg-dsgtakecvr4_p2_51
LOG (gmm-acc-stats-ali:main():gmm-acc-stats-ali.cc:105) Processed 5850 utterances; for utterance dsgtakecvr6_p1-20150122-dsg-dsgtakecvr6_p1_42 avg. like is -38.6456 over 893 frames.
LOG (apply-cmvn:main():apply-cmvn.cc:146) Applied cepstral mean normalization to 5930 utterances, errors on 0
LOG (transform-feats:main():transform-feats.cc:158) Overall average [pseudo-]logdet is -94.685 over 1.42103e+06 frames.
LOG (transform-feats:main():transform-feats.cc:161) Applied transform to 5930 utterances; 0 had errors.
LOG (gmm-acc-stats-ali:main():gmm-acc-stats-ali.cc:105) Processed 5900 utterances; for utterance dsgtakecvr6_p1-20150122-dsg-dsgtakecvr6_p1_90 avg. like is -37.3825 over 1047 frames.
LOG (transform-feats:main():transform-feats.cc:158) Overall average logdet is 4.2383 over 1.42103e+06 frames.
LOG (transform-feats:main():transform-feats.cc:161) Applied transform to 5930 utterances; 0 had errors.
LOG (gmm-acc-stats-ali:main():gmm-acc-stats-ali.cc:112) Done 5901 files, 29 with errors.
LOG (gmm-acc-stats-ali:main():gmm-acc-stats-ali.cc:115) Overall avg like per frame (Gaussian only) = -43.4308 over 1391650 frames.
LOG (gmm-acc-stats-ali:main():gmm-acc-stats-ali.cc:123) Written accs.
# Accounting: time=23 threads=1
# Ended (code 0) at Wed Sep 16 17:38:08 CEST 2015, elapsed time 23 seconds
