# sum-tree-stats exp/tri3b/treeacc exp/tri3b/1.treeacc exp/tri3b/2.treeacc 
# Started at Wed Sep 16 17:24:42 CEST 2015
#
sum-tree-stats exp/tri3b/treeacc exp/tri3b/1.treeacc exp/tri3b/2.treeacc 
LOG (sum-tree-stats:main():sum-tree-stats.cc:88) Wrote summed accs ( 17786 individual stats)
# Accounting: time=0 threads=1
# Ended (code 0) at Wed Sep 16 17:24:42 CEST 2015, elapsed time 0 seconds
