# cat exp/tri3b_fmmi_d/decode_it3/scoring/15.tra | utils/int2sym.pl -f 2- exp/tri3b/graph/words.txt | sed s:\<UNK\>::g | compute-wer --text --mode=present ark:exp/tri3b_fmmi_d/decode_it3/scoring/test_filt.txt ark,p:- >& exp/tri3b_fmmi_d/decode_it3/wer_15 
# Started at Wed Sep 16 21:57:14 CEST 2015
#
# Accounting: time=0 threads=1
# Ended (code 0) at Wed Sep 16 21:57:14 CEST 2015, elapsed time 0 seconds
