# gmm-rescore-lattice exp/tri3b_fmmi_d/2.mdl "ark:gunzip -c exp/tri3b_denlats/lat.1.gz| lattice-boost-ali --b=0.1 --silence-phones=1:2:3:4:5 exp/tri3b_ali/final.mdl ark:- 'ark,s,cs:gunzip -c exp/tri3b_ali/ali.1.gz|' ark:- |" "ark,s,cs:apply-cmvn  --utt2spk=ark:data/train/split2/1/utt2spk scp:data/train/split2/1/cmvn.scp scp:data/train/split2/1/feats.scp ark:- | splice-feats  ark:- ark:- | transform-feats exp/tri3b_ali/final.mat ark:- ark:- | transform-feats --utt2spk=ark:data/train/split2/1/utt2spk ark:exp/tri3b_ali/trans.1 ark:- ark:- | fmpe-apply-transform exp/tri3b_fmmi_d/2.fmpe ark:- 'ark,s,cs:gunzip -c exp/tri3b_fmmi_d/gselect.1.gz|' ark:- |" ark:- | lattice-to-post --acoustic-scale=0.1 ark:- ark:- | sum-post --drop-frames=false --merge=false --scale1=-1 ark:- "ark,s,cs:gunzip -c exp/tri3b_ali/ali.1.gz| ali-to-post ark:- ark:-|" ark:- | gmm-fmpe-acc-stats --model-derivative=exp/tri3b_fmmi_d/model_deriv.2.gmmacc exp/tri3b_fmmi_d/2.mdl exp/tri3b_fmmi_d/2.fmpe "ark,s,cs:apply-cmvn  --utt2spk=ark:data/train/split2/1/utt2spk scp:data/train/split2/1/cmvn.scp scp:data/train/split2/1/feats.scp ark:- | splice-feats  ark:- ark:- | transform-feats exp/tri3b_ali/final.mat ark:- ark:- | transform-feats --utt2spk=ark:data/train/split2/1/utt2spk ark:exp/tri3b_ali/trans.1 ark:- ark:- |" "ark,s,cs:gunzip -c exp/tri3b_fmmi_d/gselect.1.gz|" ark,s,cs:- exp/tri3b_fmmi_d/2.1.fmpe_acc 
# Started at Wed Sep 16 21:10:04 CEST 2015
#
sum-post --drop-frames=false --merge=false --scale1=-1 ark:- 'ark,s,cs:gunzip -c exp/tri3b_ali/ali.1.gz| ali-to-post ark:- ark:-|' ark:- 
gmm-fmpe-acc-stats --model-derivative=exp/tri3b_fmmi_d/model_deriv.2.gmmacc exp/tri3b_fmmi_d/2.mdl exp/tri3b_fmmi_d/2.fmpe 'ark,s,cs:apply-cmvn  --utt2spk=ark:data/train/split2/1/utt2spk scp:data/train/split2/1/cmvn.scp scp:data/train/split2/1/feats.scp ark:- | splice-feats  ark:- ark:- | transform-feats exp/tri3b_ali/final.mat ark:- ark:- | transform-feats --utt2spk=ark:data/train/split2/1/utt2spk ark:exp/tri3b_ali/trans.1 ark:- ark:- |' 'ark,s,cs:gunzip -c exp/tri3b_fmmi_d/gselect.1.gz|' ark,s,cs:- exp/tri3b_fmmi_d/2.1.fmpe_acc 
gmm-rescore-lattice exp/tri3b_fmmi_d/2.mdl "ark:gunzip -c exp/tri3b_denlats/lat.1.gz| lattice-boost-ali --b=0.1 --silence-phones=1:2:3:4:5 exp/tri3b_ali/final.mdl ark:- 'ark,s,cs:gunzip -c exp/tri3b_ali/ali.1.gz|' ark:- |" "ark,s,cs:apply-cmvn  --utt2spk=ark:data/train/split2/1/utt2spk scp:data/train/split2/1/cmvn.scp scp:data/train/split2/1/feats.scp ark:- | splice-feats  ark:- ark:- | transform-feats exp/tri3b_ali/final.mat ark:- ark:- | transform-feats --utt2spk=ark:data/train/split2/1/utt2spk ark:exp/tri3b_ali/trans.1 ark:- ark:- | fmpe-apply-transform exp/tri3b_fmmi_d/2.fmpe ark:- 'ark,s,cs:gunzip -c exp/tri3b_fmmi_d/gselect.1.gz|' ark:- |" ark:- 
lattice-to-post --acoustic-scale=0.1 ark:- ark:- 
transform-feats --utt2spk=ark:data/train/split2/1/utt2spk ark:exp/tri3b_ali/trans.1 ark:- ark:- 
apply-cmvn --utt2spk=ark:data/train/split2/1/utt2spk scp:data/train/split2/1/cmvn.scp scp:data/train/split2/1/feats.scp ark:- 
splice-feats ark:- ark:- 
fmpe-apply-transform exp/tri3b_fmmi_d/2.fmpe ark:- 'ark,s,cs:gunzip -c exp/tri3b_fmmi_d/gselect.1.gz|' ark:- 
lattice-boost-ali --b=0.1 --silence-phones=1:2:3:4:5 exp/tri3b_ali/final.mdl ark:- 'ark,s,cs:gunzip -c exp/tri3b_ali/ali.1.gz|' ark:- 
transform-feats exp/tri3b_ali/final.mat ark:- ark:- 
apply-cmvn --utt2spk=ark:data/train/split2/1/utt2spk scp:data/train/split2/1/cmvn.scp scp:data/train/split2/1/feats.scp ark:- 
transform-feats --utt2spk=ark:data/train/split2/1/utt2spk ark:exp/tri3b_ali/trans.1 ark:- ark:- 
splice-feats ark:- ark:- 
transform-feats exp/tri3b_ali/final.mat ark:- ark:- 
ali-to-post ark:- ark:- 
WARNING (lattice-boost-ali:main():lattice-boost-ali.cc:104) No alignment for utterance dsgputr1-20130122-dsg-dsgputr1_140
WARNING (gmm-fmpe-acc-stats:main():gmm-fmpe-acc-stats.cc:94) No posteriors for utterance dsgputr1-20130122-dsg-dsgputr1_140
LOG (gmm-fmpe-acc-stats:main():gmm-fmpe-acc-stats.cc:137) Processed 100 utterances.
LOG (gmm-fmpe-acc-stats:main():gmm-fmpe-acc-stats.cc:137) Processed 200 utterances.
WARNING (lattice-boost-ali:main():lattice-boost-ali.cc:104) No alignment for utterance dsgputr1-20130122-dsg-dsgputr1_339
WARNING (gmm-fmpe-acc-stats:main():gmm-fmpe-acc-stats.cc:94) No posteriors for utterance dsgputr1-20130122-dsg-dsgputr1_339
LOG (gmm-fmpe-acc-stats:main():gmm-fmpe-acc-stats.cc:137) Processed 300 utterances.
LOG (gmm-fmpe-acc-stats:main():gmm-fmpe-acc-stats.cc:137) Processed 400 utterances.
LOG (gmm-fmpe-acc-stats:main():gmm-fmpe-acc-stats.cc:137) Processed 500 utterances.
LOG (gmm-fmpe-acc-stats:main():gmm-fmpe-acc-stats.cc:137) Processed 600 utterances.
LOG (gmm-fmpe-acc-stats:main():gmm-fmpe-acc-stats.cc:137) Processed 700 utterances.
LOG (gmm-fmpe-acc-stats:main():gmm-fmpe-acc-stats.cc:137) Processed 800 utterances.
WARNING (lattice-boost-ali:main():lattice-boost-ali.cc:104) No alignment for utterance dsgputr11-20130124-dsg-dsgputr11_119
WARNING (gmm-fmpe-acc-stats:main():gmm-fmpe-acc-stats.cc:94) No posteriors for utterance dsgputr11-20130124-dsg-dsgputr11_119
LOG (gmm-fmpe-acc-stats:main():gmm-fmpe-acc-stats.cc:137) Processed 900 utterances.
LOG (gmm-fmpe-acc-stats:main():gmm-fmpe-acc-stats.cc:137) Processed 1000 utterances.
LOG (gmm-fmpe-acc-stats:main():gmm-fmpe-acc-stats.cc:137) Processed 1100 utterances.
LOG (gmm-fmpe-acc-stats:main():gmm-fmpe-acc-stats.cc:137) Processed 1200 utterances.
LOG (gmm-fmpe-acc-stats:main():gmm-fmpe-acc-stats.cc:137) Processed 1300 utterances.
LOG (gmm-fmpe-acc-stats:main():gmm-fmpe-acc-stats.cc:137) Processed 1400 utterances.
LOG (gmm-fmpe-acc-stats:main():gmm-fmpe-acc-stats.cc:137) Processed 1500 utterances.
LOG (gmm-fmpe-acc-stats:main():gmm-fmpe-acc-stats.cc:137) Processed 1600 utterances.
LOG (gmm-fmpe-acc-stats:main():gmm-fmpe-acc-stats.cc:137) Processed 1700 utterances.
LOG (gmm-fmpe-acc-stats:main():gmm-fmpe-acc-stats.cc:137) Processed 1800 utterances.
LOG (gmm-fmpe-acc-stats:main():gmm-fmpe-acc-stats.cc:137) Processed 1900 utterances.
LOG (gmm-fmpe-acc-stats:main():gmm-fmpe-acc-stats.cc:137) Processed 2000 utterances.
WARNING (gmm-fmpe-acc-stats:main():gmm-fmpe-acc-stats.cc:94) No posteriors for utterance dsgputr13-20130125-dsg-dsgputr13_37
LOG (gmm-fmpe-acc-stats:main():gmm-fmpe-acc-stats.cc:137) Processed 2100 utterances.
LOG (gmm-fmpe-acc-stats:main():gmm-fmpe-acc-stats.cc:137) Processed 2200 utterances.
WARNING (lattice-boost-ali:main():lattice-boost-ali.cc:104) No alignment for utterance dsgputr14-20130125-dsg-dsgputr14_203
WARNING (gmm-fmpe-acc-stats:main():gmm-fmpe-acc-stats.cc:94) No posteriors for utterance dsgputr14-20130125-dsg-dsgputr14_203
LOG (gmm-fmpe-acc-stats:main():gmm-fmpe-acc-stats.cc:137) Processed 2300 utterances.
LOG (gmm-fmpe-acc-stats:main():gmm-fmpe-acc-stats.cc:137) Processed 2400 utterances.
WARNING (lattice-boost-ali:main():lattice-boost-ali.cc:104) No alignment for utterance dsgputr14-20130125-dsg-dsgputr14_6
WARNING (gmm-fmpe-acc-stats:main():gmm-fmpe-acc-stats.cc:94) No posteriors for utterance dsgputr14-20130125-dsg-dsgputr14_6
LOG (gmm-fmpe-acc-stats:main():gmm-fmpe-acc-stats.cc:137) Processed 2500 utterances.
LOG (gmm-fmpe-acc-stats:main():gmm-fmpe-acc-stats.cc:137) Processed 2600 utterances.
LOG (gmm-fmpe-acc-stats:main():gmm-fmpe-acc-stats.cc:137) Processed 2700 utterances.
LOG (gmm-fmpe-acc-stats:main():gmm-fmpe-acc-stats.cc:137) Processed 2800 utterances.
WARNING (lattice-boost-ali:main():lattice-boost-ali.cc:104) No alignment for utterance dsgputr15-20130125-dsg-dsgputr15_523
LOG (gmm-fmpe-acc-stats:main():gmm-fmpe-acc-stats.cc:137) Processed 2900 utterances.
WARNING (gmm-fmpe-acc-stats:main():gmm-fmpe-acc-stats.cc:94) No posteriors for utterance dsgputr15-20130125-dsg-dsgputr15_523
LOG (gmm-fmpe-acc-stats:main():gmm-fmpe-acc-stats.cc:137) Processed 3000 utterances.
LOG (gmm-fmpe-acc-stats:main():gmm-fmpe-acc-stats.cc:137) Processed 3100 utterances.
LOG (gmm-fmpe-acc-stats:main():gmm-fmpe-acc-stats.cc:137) Processed 3200 utterances.
LOG (gmm-fmpe-acc-stats:main():gmm-fmpe-acc-stats.cc:137) Processed 3300 utterances.
LOG (gmm-fmpe-acc-stats:main():gmm-fmpe-acc-stats.cc:137) Processed 3400 utterances.
LOG (gmm-fmpe-acc-stats:main():gmm-fmpe-acc-stats.cc:137) Processed 3500 utterances.
LOG (gmm-fmpe-acc-stats:main():gmm-fmpe-acc-stats.cc:137) Processed 3600 utterances.
LOG (gmm-fmpe-acc-stats:main():gmm-fmpe-acc-stats.cc:137) Processed 3700 utterances.
LOG (gmm-fmpe-acc-stats:main():gmm-fmpe-acc-stats.cc:137) Processed 3800 utterances.
WARNING (lattice-boost-ali:main():lattice-boost-ali.cc:104) No alignment for utterance dsgputr3-20130122-dsg-dsgputr3_12
LOG (gmm-fmpe-acc-stats:main():gmm-fmpe-acc-stats.cc:137) Processed 3900 utterances.
WARNING (gmm-fmpe-acc-stats:main():gmm-fmpe-acc-stats.cc:94) No posteriors for utterance dsgputr3-20130122-dsg-dsgputr3_12
LOG (gmm-fmpe-acc-stats:main():gmm-fmpe-acc-stats.cc:137) Processed 4000 utterances.
LOG (gmm-fmpe-acc-stats:main():gmm-fmpe-acc-stats.cc:137) Processed 4100 utterances.
WARNING (lattice-boost-ali:main():lattice-boost-ali.cc:104) No alignment for utterance dsgputr4-20130122-dsg-dsgputr4_172
LOG (gmm-fmpe-acc-stats:main():gmm-fmpe-acc-stats.cc:137) Processed 4200 utterances.
WARNING (gmm-fmpe-acc-stats:main():gmm-fmpe-acc-stats.cc:94) No posteriors for utterance dsgputr4-20130122-dsg-dsgputr4_172
LOG (gmm-fmpe-acc-stats:main():gmm-fmpe-acc-stats.cc:137) Processed 4300 utterances.
LOG (gmm-fmpe-acc-stats:main():gmm-fmpe-acc-stats.cc:137) Processed 4400 utterances.
LOG (gmm-fmpe-acc-stats:main():gmm-fmpe-acc-stats.cc:137) Processed 4500 utterances.
LOG (gmm-fmpe-acc-stats:main():gmm-fmpe-acc-stats.cc:137) Processed 4600 utterances.
LOG (gmm-fmpe-acc-stats:main():gmm-fmpe-acc-stats.cc:137) Processed 4700 utterances.
LOG (gmm-fmpe-acc-stats:main():gmm-fmpe-acc-stats.cc:137) Processed 4800 utterances.
LOG (gmm-fmpe-acc-stats:main():gmm-fmpe-acc-stats.cc:137) Processed 4900 utterances.
LOG (gmm-fmpe-acc-stats:main():gmm-fmpe-acc-stats.cc:137) Processed 5000 utterances.
WARNING (lattice-boost-ali:main():lattice-boost-ali.cc:104) No alignment for utterance dsgputr9-20130124-dsg-dsgputr9_234
LOG (gmm-fmpe-acc-stats:main():gmm-fmpe-acc-stats.cc:137) Processed 5100 utterances.
WARNING (gmm-fmpe-acc-stats:main():gmm-fmpe-acc-stats.cc:94) No posteriors for utterance dsgputr9-20130124-dsg-dsgputr9_234
LOG (gmm-fmpe-acc-stats:main():gmm-fmpe-acc-stats.cc:137) Processed 5200 utterances.
LOG (gmm-fmpe-acc-stats:main():gmm-fmpe-acc-stats.cc:137) Processed 5300 utterances.
LOG (gmm-fmpe-acc-stats:main():gmm-fmpe-acc-stats.cc:137) Processed 5400 utterances.
LOG (gmm-fmpe-acc-stats:main():gmm-fmpe-acc-stats.cc:137) Processed 5500 utterances.
WARNING (lattice-boost-ali:main():lattice-boost-ali.cc:104) No alignment for utterance dsgtakecvr1_p2-20150120-dsg-dsgtakecvr1_p2_16
WARNING (lattice-boost-ali:main():lattice-boost-ali.cc:104) No alignment for utterance dsgtakecvr1_p2-20150120-dsg-dsgtakecvr1_p2_18
WARNING (gmm-fmpe-acc-stats:main():gmm-fmpe-acc-stats.cc:94) No posteriors for utterance dsgtakecvr1_p2-20150120-dsg-dsgtakecvr1_p2_16
WARNING (gmm-fmpe-acc-stats:main():gmm-fmpe-acc-stats.cc:94) No posteriors for utterance dsgtakecvr1_p2-20150120-dsg-dsgtakecvr1_p2_18
WARNING (lattice-boost-ali:main():lattice-boost-ali.cc:104) No alignment for utterance dsgtakecvr1_p2-20150120-dsg-dsgtakecvr1_p2_3
WARNING (gmm-fmpe-acc-stats:main():gmm-fmpe-acc-stats.cc:94) No posteriors for utterance dsgtakecvr1_p2-20150120-dsg-dsgtakecvr1_p2_3
LOG (gmm-fmpe-acc-stats:main():gmm-fmpe-acc-stats.cc:137) Processed 5600 utterances.
WARNING (lattice-boost-ali:main():lattice-boost-ali.cc:104) No alignment for utterance dsgtakecvr3_p1-20150121-dsg-dsgtakecvr3_p1_13
WARNING (lattice-boost-ali:main():lattice-boost-ali.cc:104) No alignment for utterance dsgtakecvr3_p1-20150121-dsg-dsgtakecvr3_p1_17
WARNING (lattice-boost-ali:main():lattice-boost-ali.cc:104) No alignment for utterance dsgtakecvr3_p1-20150121-dsg-dsgtakecvr3_p1_19
WARNING (gmm-fmpe-acc-stats:main():gmm-fmpe-acc-stats.cc:94) No posteriors for utterance dsgtakecvr3_p1-20150121-dsg-dsgtakecvr3_p1_13
WARNING (gmm-fmpe-acc-stats:main():gmm-fmpe-acc-stats.cc:94) No posteriors for utterance dsgtakecvr3_p1-20150121-dsg-dsgtakecvr3_p1_17
WARNING (gmm-fmpe-acc-stats:main():gmm-fmpe-acc-stats.cc:94) No posteriors for utterance dsgtakecvr3_p1-20150121-dsg-dsgtakecvr3_p1_19
WARNING (lattice-boost-ali:main():lattice-boost-ali.cc:104) No alignment for utterance dsgtakecvr3_p1-20150121-dsg-dsgtakecvr3_p1_46
WARNING (gmm-fmpe-acc-stats:main():gmm-fmpe-acc-stats.cc:94) No posteriors for utterance dsgtakecvr3_p1-20150121-dsg-dsgtakecvr3_p1_46
WARNING (lattice-boost-ali:main():lattice-boost-ali.cc:104) No alignment for utterance dsgtakecvr3_p2-20150121-dsg-dsgtakecvr3_p2_1
WARNING (gmm-fmpe-acc-stats:main():gmm-fmpe-acc-stats.cc:94) No posteriors for utterance dsgtakecvr3_p1-20150121-dsg-dsgtakecvr3_p1_6
WARNING (gmm-fmpe-acc-stats:main():gmm-fmpe-acc-stats.cc:94) No posteriors for utterance dsgtakecvr3_p2-20150121-dsg-dsgtakecvr3_p2_1
WARNING (lattice-boost-ali:main():lattice-boost-ali.cc:104) No alignment for utterance dsgtakecvr3_p2-20150121-dsg-dsgtakecvr3_p2_21
LOG (gmm-fmpe-acc-stats:main():gmm-fmpe-acc-stats.cc:137) Processed 5700 utterances.
WARNING (lattice-boost-ali:main():lattice-boost-ali.cc:104) No alignment for utterance dsgtakecvr3_p2-20150121-dsg-dsgtakecvr3_p2_28
WARNING (gmm-fmpe-acc-stats:main():gmm-fmpe-acc-stats.cc:94) No posteriors for utterance dsgtakecvr3_p2-20150121-dsg-dsgtakecvr3_p2_21
WARNING (gmm-fmpe-acc-stats:main():gmm-fmpe-acc-stats.cc:94) No posteriors for utterance dsgtakecvr3_p2-20150121-dsg-dsgtakecvr3_p2_28
WARNING (lattice-boost-ali:main():lattice-boost-ali.cc:104) No alignment for utterance dsgtakecvr3_p2-20150121-dsg-dsgtakecvr3_p2_6
WARNING (gmm-fmpe-acc-stats:main():gmm-fmpe-acc-stats.cc:94) No posteriors for utterance dsgtakecvr3_p2-20150121-dsg-dsgtakecvr3_p2_6
WARNING (lattice-boost-ali:main():lattice-boost-ali.cc:104) No alignment for utterance dsgtakecvr4_p2-20150121-dsg-dsgtakecvr4_p2_10
WARNING (gmm-fmpe-acc-stats:main():gmm-fmpe-acc-stats.cc:94) No posteriors for utterance dsgtakecvr4_p2-20150121-dsg-dsgtakecvr4_p2_10
WARNING (lattice-boost-ali:main():lattice-boost-ali.cc:104) No alignment for utterance dsgtakecvr4_p2-20150121-dsg-dsgtakecvr4_p2_40
WARNING (lattice-boost-ali:main():lattice-boost-ali.cc:104) No alignment for utterance dsgtakecvr4_p2-20150121-dsg-dsgtakecvr4_p2_41
LOG (gmm-fmpe-acc-stats:main():gmm-fmpe-acc-stats.cc:137) Processed 5800 utterances.
WARNING (lattice-boost-ali:main():lattice-boost-ali.cc:104) No alignment for utterance dsgtakecvr4_p2-20150121-dsg-dsgtakecvr4_p2_51
WARNING (gmm-fmpe-acc-stats:main():gmm-fmpe-acc-stats.cc:94) No posteriors for utterance dsgtakecvr4_p2-20150121-dsg-dsgtakecvr4_p2_40
WARNING (gmm-fmpe-acc-stats:main():gmm-fmpe-acc-stats.cc:94) No posteriors for utterance dsgtakecvr4_p2-20150121-dsg-dsgtakecvr4_p2_41
WARNING (gmm-fmpe-acc-stats:main():gmm-fmpe-acc-stats.cc:94) No posteriors for utterance dsgtakecvr4_p2-20150121-dsg-dsgtakecvr4_p2_51
LOG (apply-cmvn:main():apply-cmvn.cc:146) Applied cepstral mean normalization to 5930 utterances, errors on 0
LOG (lattice-boost-ali:main():lattice-boost-ali.cc:120) Done 5904 lattices, missing alignments for 24, other errors on 0
LOG (transform-feats:main():transform-feats.cc:158) Overall average [pseudo-]logdet is -94.685 over 1.42103e+06 frames.
LOG (transform-feats:main():transform-feats.cc:161) Applied transform to 5930 utterances; 0 had errors.
LOG (transform-feats:main():transform-feats.cc:158) Overall average logdet is 3.66799 over 1.42103e+06 frames.
LOG (transform-feats:main():transform-feats.cc:161) Applied transform to 5930 utterances; 0 had errors.
LOG (fmpe-apply-transform:main():fmpe-apply-transform.cc:82)  Done 5930 utterances, 0 had errors.
LOG (gmm-rescore-lattice:main():gmm-rescore-lattice.cc:103) Done 5904 lattices with errors on 0, #frames is 1394959
LOG (ali-to-post:main():ali-to-post.cc:65) Converted 5906 alignments.
LOG (lattice-to-post:main():lattice-to-post.cc:106) Overall average log-like/frame is -4.18664 over 1.39496e+06 frames.  Average acoustic like/frame is -4.02399
LOG (lattice-to-post:main():lattice-to-post.cc:110) Done 5904 lattices.
LOG (apply-cmvn:main():apply-cmvn.cc:146) Applied cepstral mean normalization to 5930 utterances, errors on 0
LOG (gmm-fmpe-acc-stats:main():gmm-fmpe-acc-stats.cc:137) Processed 5900 utterances.
LOG (sum-post:main():sum-post.cc:97) Processed 1394959 frames; for 78308 frames there was no overlap, i.e. 5.61364% (e.g. numerator path not in denominator lattice)
LOG (sum-post:main():sum-post.cc:101) Done adding 5904 posteriors;  0 with errors.
LOG (transform-feats:main():transform-feats.cc:158) Overall average [pseudo-]logdet is -94.685 over 1.42103e+06 frames.
LOG (transform-feats:main():transform-feats.cc:161) Applied transform to 5930 utterances; 0 had errors.
LOG (transform-feats:main():transform-feats.cc:158) Overall average logdet is 3.66799 over 1.42103e+06 frames.
LOG (transform-feats:main():transform-feats.cc:161) Applied transform to 5930 utterances; 0 had errors.
LOG (gmm-fmpe-acc-stats:main():gmm-fmpe-acc-stats.cc:140) Done 5904 files, 26 with errors.
LOG (gmm-fmpe-acc-stats:main():gmm-fmpe-acc-stats.cc:142) Overall weighted acoustic likelihood per frame is -0.183677 over 1394959 frames.
# Accounting: time=336 threads=1
# Ended (code 0) at Wed Sep 16 21:15:40 CEST 2015, elapsed time 336 seconds
