# gmm-est-gaussians-ebw --tau=200 exp/tri3b_fmmi_d/4.mdl exp/tri3b_fmmi_d/num_acc.4.acc exp/tri3b_fmmi_d/den_acc.4.acc - | gmm-est-weights-ebw - exp/tri3b_fmmi_d/num_acc.4.acc exp/tri3b_fmmi_d/den_acc.4.acc exp/tri3b_fmmi_d/5.mdl 
# Started at Wed Sep 16 21:34:41 CEST 2015
#
gmm-est-gaussians-ebw --tau=200 exp/tri3b_fmmi_d/4.mdl exp/tri3b_fmmi_d/num_acc.4.acc exp/tri3b_fmmi_d/den_acc.4.acc - 
gmm-est-weights-ebw - exp/tri3b_fmmi_d/num_acc.4.acc exp/tri3b_fmmi_d/den_acc.4.acc exp/tri3b_fmmi_d/5.mdl 
LOG (gmm-est-gaussians-ebw:main():gmm-est-gaussians-ebw.cc:98) Num count 347711, den count 347711
LOG (gmm-est-gaussians-ebw:main():gmm-est-gaussians-ebw.cc:100) Overall auxf impr/frame from Gaussian update is 0.756081 over 347711 frames; floored D for 247 Gaussians.
LOG (gmm-est-gaussians-ebw:main():gmm-est-gaussians-ebw.cc:111) Written model to -
LOG (gmm-est-weights-ebw:UpdateEbwWeightsDiagGmm():ebw-diag-gmm.cc:223) Not updating weights for this state because total count is 4.64262 < 10
LOG (gmm-est-weights-ebw:UpdateEbwWeightsDiagGmm():ebw-diag-gmm.cc:223) Not updating weights for this state because total count is 3.69549e-06 < 10
LOG (gmm-est-weights-ebw:UpdateEbwWeightsDiagGmm():ebw-diag-gmm.cc:223) Not updating weights for this state because total count is 1.01021 < 10
LOG (gmm-est-weights-ebw:UpdateEbwWeightsDiagGmm():ebw-diag-gmm.cc:223) Not updating weights for this state because total count is 9.97424 < 10
LOG (gmm-est-weights-ebw:UpdateEbwWeightsDiagGmm():ebw-diag-gmm.cc:223) Not updating weights for this state because total count is 7.60745 < 10
LOG (gmm-est-weights-ebw:UpdateEbwWeightsDiagGmm():ebw-diag-gmm.cc:223) Not updating weights for this state because total count is 8.6726 < 10
LOG (gmm-est-weights-ebw:UpdateEbwWeightsDiagGmm():ebw-diag-gmm.cc:223) Not updating weights for this state because total count is 7.54174 < 10
LOG (gmm-est-weights-ebw:UpdateEbwWeightsDiagGmm():ebw-diag-gmm.cc:223) Not updating weights for this state because total count is 7.5415 < 10
LOG (gmm-est-weights-ebw:UpdateEbwWeightsDiagGmm():ebw-diag-gmm.cc:223) Not updating weights for this state because total count is 9.76032 < 10
LOG (gmm-est-weights-ebw:UpdateEbwWeightsDiagGmm():ebw-diag-gmm.cc:223) Not updating weights for this state because total count is 4.56837 < 10
LOG (gmm-est-weights-ebw:UpdateEbwWeightsDiagGmm():ebw-diag-gmm.cc:223) Not updating weights for this state because total count is 7.62536 < 10
LOG (gmm-est-weights-ebw:UpdateEbwWeightsDiagGmm():ebw-diag-gmm.cc:223) Not updating weights for this state because total count is 5.31678 < 10
LOG (gmm-est-weights-ebw:UpdateEbwWeightsDiagGmm():ebw-diag-gmm.cc:223) Not updating weights for this state because total count is 5.19106 < 10
LOG (gmm-est-weights-ebw:UpdateEbwWeightsDiagGmm():ebw-diag-gmm.cc:223) Not updating weights for this state because total count is 5.94188 < 10
LOG (gmm-est-weights-ebw:UpdateEbwWeightsDiagGmm():ebw-diag-gmm.cc:223) Not updating weights for this state because total count is 1.37091e-06 < 10
LOG (gmm-est-weights-ebw:UpdateEbwWeightsDiagGmm():ebw-diag-gmm.cc:223) Not updating weights for this state because total count is 5.43323 < 10
LOG (gmm-est-weights-ebw:UpdateEbwWeightsDiagGmm():ebw-diag-gmm.cc:223) Not updating weights for this state because total count is 6.59682 < 10
LOG (gmm-est-weights-ebw:UpdateEbwWeightsDiagGmm():ebw-diag-gmm.cc:223) Not updating weights for this state because total count is 2.10083 < 10
LOG (gmm-est-weights-ebw:UpdateEbwWeightsDiagGmm():ebw-diag-gmm.cc:223) Not updating weights for this state because total count is 5.74288 < 10
LOG (gmm-est-weights-ebw:UpdateEbwWeightsDiagGmm():ebw-diag-gmm.cc:223) Not updating weights for this state because total count is 6.46305 < 10
LOG (gmm-est-weights-ebw:UpdateEbwWeightsDiagGmm():ebw-diag-gmm.cc:223) Not updating weights for this state because total count is 9.91628 < 10
LOG (gmm-est-weights-ebw:UpdateEbwWeightsDiagGmm():ebw-diag-gmm.cc:223) Not updating weights for this state because total count is 4 < 10
LOG (gmm-est-weights-ebw:UpdateEbwWeightsDiagGmm():ebw-diag-gmm.cc:223) Not updating weights for this state because total count is 9.24968 < 10
LOG (gmm-est-weights-ebw:UpdateEbwWeightsDiagGmm():ebw-diag-gmm.cc:223) Not updating weights for this state because total count is 2.32458e-06 < 10
LOG (gmm-est-weights-ebw:UpdateEbwWeightsDiagGmm():ebw-diag-gmm.cc:223) Not updating weights for this state because total count is 9.89084 < 10
LOG (gmm-est-weights-ebw:UpdateEbwWeightsDiagGmm():ebw-diag-gmm.cc:223) Not updating weights for this state because total count is 7 < 10
LOG (gmm-est-weights-ebw:UpdateEbwWeightsDiagGmm():ebw-diag-gmm.cc:223) Not updating weights for this state because total count is 6.18548 < 10
LOG (gmm-est-weights-ebw:UpdateEbwWeightsDiagGmm():ebw-diag-gmm.cc:223) Not updating weights for this state because total count is 5.16989 < 10
LOG (gmm-est-weights-ebw:UpdateEbwWeightsDiagGmm():ebw-diag-gmm.cc:223) Not updating weights for this state because total count is 8.28063 < 10
LOG (gmm-est-weights-ebw:UpdateEbwWeightsDiagGmm():ebw-diag-gmm.cc:223) Not updating weights for this state because total count is 8.34465e-07 < 10
LOG (gmm-est-weights-ebw:UpdateEbwWeightsDiagGmm():ebw-diag-gmm.cc:223) Not updating weights for this state because total count is 6 < 10
LOG (gmm-est-weights-ebw:UpdateEbwWeightsDiagGmm():ebw-diag-gmm.cc:223) Not updating weights for this state because total count is 6.05343 < 10
LOG (gmm-est-weights-ebw:UpdateEbwWeightsDiagGmm():ebw-diag-gmm.cc:223) Not updating weights for this state because total count is 1.50514 < 10
LOG (gmm-est-weights-ebw:UpdateEbwWeightsDiagGmm():ebw-diag-gmm.cc:223) Not updating weights for this state because total count is 5.28773 < 10
LOG (gmm-est-weights-ebw:UpdateEbwWeightsDiagGmm():ebw-diag-gmm.cc:223) Not updating weights for this state because total count is 6.62831 < 10
LOG (gmm-est-weights-ebw:UpdateEbwWeightsDiagGmm():ebw-diag-gmm.cc:223) Not updating weights for this state because total count is 9.18765 < 10
LOG (gmm-est-weights-ebw:UpdateEbwWeightsDiagGmm():ebw-diag-gmm.cc:223) Not updating weights for this state because total count is 9.42676 < 10
LOG (gmm-est-weights-ebw:UpdateEbwWeightsDiagGmm():ebw-diag-gmm.cc:223) Not updating weights for this state because total count is 3.76204 < 10
LOG (gmm-est-weights-ebw:UpdateEbwWeightsDiagGmm():ebw-diag-gmm.cc:223) Not updating weights for this state because total count is 8.14931 < 10
LOG (gmm-est-weights-ebw:UpdateEbwWeightsDiagGmm():ebw-diag-gmm.cc:223) Not updating weights for this state because total count is 8.53622 < 10
LOG (gmm-est-weights-ebw:UpdateEbwWeightsDiagGmm():ebw-diag-gmm.cc:223) Not updating weights for this state because total count is 5.07034 < 10
LOG (gmm-est-weights-ebw:UpdateEbwWeightsDiagGmm():ebw-diag-gmm.cc:223) Not updating weights for this state because total count is 7.91743 < 10
LOG (gmm-est-weights-ebw:UpdateEbwWeightsDiagGmm():ebw-diag-gmm.cc:223) Not updating weights for this state because total count is 4.21096 < 10
LOG (gmm-est-weights-ebw:UpdateEbwWeightsDiagGmm():ebw-diag-gmm.cc:223) Not updating weights for this state because total count is 3.35778 < 10
LOG (gmm-est-weights-ebw:UpdateEbwWeightsDiagGmm():ebw-diag-gmm.cc:223) Not updating weights for this state because total count is 4.76837e-07 < 10
LOG (gmm-est-weights-ebw:UpdateEbwWeightsDiagGmm():ebw-diag-gmm.cc:223) Not updating weights for this state because total count is 5.07502 < 10
LOG (gmm-est-weights-ebw:UpdateEbwWeightsDiagGmm():ebw-diag-gmm.cc:223) Not updating weights for this state because total count is 6.43103 < 10
LOG (gmm-est-weights-ebw:UpdateEbwWeightsDiagGmm():ebw-diag-gmm.cc:223) Not updating weights for this state because total count is 4.64031 < 10
LOG (gmm-est-weights-ebw:UpdateEbwWeightsDiagGmm():ebw-diag-gmm.cc:223) Not updating weights for this state because total count is 4.39125 < 10
LOG (gmm-est-weights-ebw:UpdateEbwWeightsDiagGmm():ebw-diag-gmm.cc:223) Not updating weights for this state because total count is 2.23423 < 10
LOG (gmm-est-weights-ebw:UpdateEbwWeightsDiagGmm():ebw-diag-gmm.cc:223) Not updating weights for this state because total count is 7.61868 < 10
LOG (gmm-est-weights-ebw:UpdateEbwWeightsDiagGmm():ebw-diag-gmm.cc:223) Not updating weights for this state because total count is 4.37698 < 10
LOG (gmm-est-weights-ebw:UpdateEbwWeightsDiagGmm():ebw-diag-gmm.cc:223) Not updating weights for this state because total count is 0.675193 < 10
LOG (gmm-est-weights-ebw:UpdateEbwWeightsDiagGmm():ebw-diag-gmm.cc:223) Not updating weights for this state because total count is 9 < 10
LOG (gmm-est-weights-ebw:UpdateEbwWeightsDiagGmm():ebw-diag-gmm.cc:223) Not updating weights for this state because total count is 6.12344 < 10
LOG (gmm-est-weights-ebw:UpdateEbwWeightsDiagGmm():ebw-diag-gmm.cc:223) Not updating weights for this state because total count is 1.43051e-06 < 10
LOG (gmm-est-weights-ebw:UpdateEbwWeightsDiagGmm():ebw-diag-gmm.cc:223) Not updating weights for this state because total count is 3.38764 < 10
LOG (gmm-est-weights-ebw:UpdateEbwWeightsDiagGmm():ebw-diag-gmm.cc:223) Not updating weights for this state because total count is 1.63291 < 10
LOG (gmm-est-weights-ebw:UpdateEbwWeightsDiagGmm():ebw-diag-gmm.cc:223) Not updating weights for this state because total count is 9.40949 < 10
LOG (gmm-est-weights-ebw:UpdateEbwWeightsDiagGmm():ebw-diag-gmm.cc:223) Not updating weights for this state because total count is 1.99543 < 10
LOG (gmm-est-weights-ebw:UpdateEbwWeightsDiagGmm():ebw-diag-gmm.cc:223) Not updating weights for this state because total count is 7.78039 < 10
LOG (gmm-est-weights-ebw:UpdateEbwWeightsDiagGmm():ebw-diag-gmm.cc:223) Not updating weights for this state because total count is 4 < 10
LOG (gmm-est-weights-ebw:UpdateEbwWeightsDiagGmm():ebw-diag-gmm.cc:223) Not updating weights for this state because total count is 8.05521 < 10
LOG (gmm-est-weights-ebw:main():gmm-est-weights-ebw.cc:96) Num count 347711, den count 347711
LOG (gmm-est-weights-ebw:main():gmm-est-weights-ebw.cc:98) Overall auxf impr/frame from weight update is 0.294026 over 347711 frames.
LOG (gmm-est-weights-ebw:main():gmm-est-weights-ebw.cc:110) Written model to exp/tri3b_fmmi_d/5.mdl
# Accounting: time=2 threads=1
# Ended (code 0) at Wed Sep 16 21:34:43 CEST 2015, elapsed time 2 seconds
